\begin{thebibliography}{}

\bibitem[Einstein et~al., 1935]{einstein}
Einstein, A., Podolsky, B., and Rosen, N. (1935).
\newblock Can quantum-mechanical description of physical reality be considered
  complete?
\newblock {\em Physical review}, 47(10):777.

\bibitem[Kant, 1781]{kant}
Kant, I. (1781).
\newblock {\em Cr{\'\i}tica da raz{\~a}o pura}.
\newblock Abril Cultural S{\~a}o Paulo.

\bibitem[Newton, 1687]{newton}
Newton, S. (1687).
\newblock {\em Philosophiae naturalis principia mathematica}, volume~1.
\newblock Excudit Georgius Brookman; impensis TT et J. Tegg.

\end{thebibliography}
