This is BibTeX, Version 0.99c (TeX Live 2009/Debian)
The top-level auxiliary file: alpha.aux
The style file: alpha.bst
Database file #1: bibli.bib
You've used 3 entries,
            2543 wiz_defined-function locations,
            576 strings with 4776 characters,
and the built_in function-call counts, 980 in all, are:
= -- 86
> -- 41
< -- 3
+ -- 13
- -- 13
* -- 65
:= -- 176
add.period$ -- 9
call.type$ -- 3
change.case$ -- 15
chr.to.int$ -- 3
cite$ -- 3
duplicate$ -- 46
empty$ -- 77
format.name$ -- 18
if$ -- 193
int.to.chr$ -- 1
int.to.str$ -- 0
missing$ -- 5
newline$ -- 18
num.names$ -- 9
pop$ -- 21
preamble$ -- 1
purify$ -- 20
quote$ -- 0
skip$ -- 33
stack$ -- 0
substring$ -- 30
swap$ -- 4
text.length$ -- 3
text.prefix$ -- 2
top$ -- 0
type$ -- 16
warning$ -- 0
while$ -- 8
width$ -- 5
write$ -- 40
