\begin{thebibliography}{EPR35}

\bibitem[EPR35]{einstein}
A.~Einstein, B.~Podolsky, and N.~Rosen.
\newblock Can quantum-mechanical description of physical reality be considered
  complete?
\newblock {\em Physical review}, 47(10):777, 1935.

\bibitem[Kan81]{kant}
I.~Kant.
\newblock {\em Cr{\'\i}tica da raz{\~a}o pura}.
\newblock Abril Cultural S{\~a}o Paulo, 1781.

\bibitem[New87]{newton}
S.I. Newton.
\newblock {\em Philosophiae naturalis principia mathematica}, volume~1.
\newblock Excudit Georgius Brookman; impensis TT et J. Tegg, 1687.

\end{thebibliography}
